Caracteristiques des modules de la simulation : 
 Hauteur du module (en mm) : , 55
 Pression initiale : , 0.5
 Module de Young des parties rigides : , 1875
 Module de Young des parties souples, module de base : , 125
 Module de Young des parties souples, module au top : , 70
 Coefficient de Poisson : , 0
 Nombre de modules robotiques : ,2
 Nombre de paires de cavites par module : , 3
 Nombre de poutres le long de l ensemble des modules : , 33
 Pression maximale : , 10.0
 Masse d un module (en kg) : , 0.001
 Application des parties rigides : , 1
 Modele 3D des modules : , stiff_flop_indicesOK_flip.obj
 Modele 3D des chambres : , bullshit55.stl
 K_I : , 0.01
 K_P: , 0.05
 Pas de temps : , 0.05